{
    "nodes": [
        {
            "xPos": 4.666666666666667,
            "yPos": -1.5,
            "cardId": "1",
            "zoom": 1.6
        },
        {
            "xPos": 7.25,
            "yPos": -2,
            "cardId": "2",
            "zoom": 1.6
        },
        {
            "xPos": 3.2,
            "yPos": -2.3333333333333335,
            "cardId": "3",
            "zoom": 1.6
        },
        {
            "xPos": 6,
            "yPos": -2.25,
            "cardId": "4",
            "zoom": 1.6
        },
        {
            "xPos": 6,
            "yPos": -1.5,
            "cardId": "5",
            "zoom": 1.6
        },
        {
            "xPos": 3.2,
            "yPos": -1.5,
            "cardId": "6",
            "zoom": 1.6
        },
        {
            "xPos": 3.2,
            "yPos": -0.6666666666666667,
            "cardId": "7",
            "zoom": 1.6
        },
        {
            "xPos": 1.75,
            "yPos": -3.2,
            "cardId": "A",
            "zoom": 1.6
        },
        {
            "xPos": 1.75,
            "yPos": -2.3333333333333335,
            "cardId": "B",
            "zoom": 1.6
        },
        {
            "xPos": 1.75,
            "yPos": -1.5,
            "cardId": "C",
            "zoom": 1.6
        },
        {
            "xPos": 1.75,
            "yPos": -0.6666666666666667,
            "cardId": "D",
            "zoom": 1.6
        },
        {
            "xPos": 1.75,
            "yPos": 0.2,
            "cardId": "E",
            "zoom": 1.6
        }
    ],
    "edges": [],
    "background": [],
    "version": "1.7.0",
    "lot": "1",
    "variants": [
        "v2.1",
        "v2.2"
    ],
    "title": {
        "fr-FR": "Lot 1"
    }
}